<?xml version="1.0" encoding="utf-8"?>
<!-- Generator: Adobe Illustrator 21.0.0, SVG Export Plug-In . SVG Version: 6.00 Build 0)  -->
<svg version="1.1" id="Capa_1" xmlns="http://www.w3.org/2000/svg" xmlns:xlink="http://www.w3.org/1999/xlink" x="0px" y="0px"
	 viewBox="0 0 260 260" style="enable-background:new 0 0 260 260;" xml:space="preserve">
<style type="text/css">
	.st0{fill:#2D85C6;}
	.st1{fill:#2A86CA;}
</style>
<title>frequency_icon</title>
<g id="icons">
	<path class="st0" d="M195,131.2c-35.2,0-63.8,28.5-63.8,63.8s28.5,63.8,63.8,63.8s63.8-28.5,63.8-63.8S230.2,131.2,195,131.2z
		 M216.2,200.3h-26.6v-47.8l10.6,10.6v26.6h26.6L216.2,200.3z"/>
	<path class="st1" d="M79.2,204.3c-41-28.1-51.5-84.1-23.4-125.1s84.1-51.5,125.1-23.4c19.7,13.5,33.2,34.1,37.6,57.5
		c11.6,3.4,22.4,9.1,31.6,17c0-0.1,0-0.2,0-0.3c0-66.3-53.7-120-120-120C63.7,10,10,63.7,10,130c0,38.5,18.4,74.6,49.6,97.2L40,250
		h80l-20-70L79.2,204.3z"/>
</g>
</svg>
